<?xml version="1.0" encoding="iso-8859-1"?>
<!-- Generator: Adobe Illustrator 19.0.0, SVG Export Plug-In . SVG Version: 6.00 Build 0)  -->
<svg version="1.1" id="Capa_1" xmlns="http://www.w3.org/2000/svg" xmlns:xlink="http://www.w3.org/1999/xlink" x="0px" y="0px"
	 viewBox="0 0 512 512" style="enable-background:new 0 0 512 512;" xml:space="preserve">
<g>
	<g>
		<path d="M501.333,0H10.667C4.776,0,0,4.776,0,10.667v42.667C0,59.224,4.776,64,10.667,64h490.667
			C507.224,64,512,59.224,512,53.333V10.667C512,4.776,507.224,0,501.333,0z M490.667,42.667H21.333V21.333h469.333V42.667z"/>
	</g>
</g>
<g>
	<g>
		<path d="M480,437.333v-352h-21.333v352c0.062,0.634,0.062,1.273,0,1.907c-0.527,5.365-5.302,9.287-10.667,8.76H64
			c-0.634,0.062-1.273,0.062-1.907,0c-5.365-0.526-9.286-5.302-8.76-10.667v-352H32v352c-0.018,0.606-0.018,1.213,0,1.819
			c0.502,17.171,14.829,30.684,32,30.181h384c0.606,0.018,1.213,0.018,1.819,0C466.99,468.831,480.502,454.504,480,437.333z"/>
	</g>
</g>
<g>
	<g>
		<path d="M117.333,448H74.667C68.776,448,64,452.776,64,458.667v42.667C64,507.224,68.776,512,74.667,512h42.667
			c5.891,0,10.667-4.776,10.667-10.667v-42.667C128,452.776,123.224,448,117.333,448z M106.667,490.667H85.333v-21.333h21.333
			V490.667z"/>
	</g>
</g>
<g>
	<g>
		<path d="M437.333,448h-42.667c-5.891,0-10.667,4.776-10.667,10.667v42.667c0,5.891,4.776,10.667,10.667,10.667h42.667
			c5.891,0,10.667-4.776,10.667-10.667v-42.667C448,452.776,443.224,448,437.333,448z M426.667,490.667h-21.333v-21.333h21.333
			V490.667z"/>
	</g>
</g>
<g>
	<g>
		<rect x="42.667" y="245.333" width="426.667" height="21.333"/>
	</g>
</g>
<g>
	<g>
		<path d="M416,85.333H96c-5.891,0-10.667,4.776-10.667,10.667v128h21.333V106.667h298.667V224h21.333V96
			C426.667,90.109,421.891,85.333,416,85.333z"/>
	</g>
</g>
<g>
	<g>
		<path d="M416,288H96c-5.891,0-10.667,4.776-10.667,10.667v128h21.333V309.333h298.667v117.333h21.333v-128
			C426.667,292.776,421.891,288,416,288z"/>
	</g>
</g>
<g>
	<g>
		<rect x="234.667" y="160" width="42.667" height="21.333"/>
	</g>
</g>
<g>
	<g>
		<rect x="234.667" y="362.667" width="42.667" height="21.333"/>
	</g>
</g>
<g>
</g>
<g>
</g>
<g>
</g>
<g>
</g>
<g>
</g>
<g>
</g>
<g>
</g>
<g>
</g>
<g>
</g>
<g>
</g>
<g>
</g>
<g>
</g>
<g>
</g>
<g>
</g>
<g>
</g>
</svg>
