<?xml version="1.0" encoding="iso-8859-1"?>
<!-- Generator: Adobe Illustrator 19.0.0, SVG Export Plug-In . SVG Version: 6.00 Build 0)  -->
<svg version="1.1" id="Capa_1" xmlns="http://www.w3.org/2000/svg" xmlns:xlink="http://www.w3.org/1999/xlink" x="0px" y="0px"
	 viewBox="0 0 512 512" style="enable-background:new 0 0 512 512;" xml:space="preserve">
<g>
	<g>
		<g>
			<path d="M362.667,170.667c-11.76,0-21.333-9.573-21.333-21.333c0-23.531-19.135-42.667-42.667-42.667h-32
				c-5.896,0-10.667,4.771-10.667,10.667c0,5.896,4.771,10.667,10.667,10.667h32c11.76,0,21.333,9.573,21.333,21.333
				C320,172.865,339.135,192,362.667,192c11.76,0,21.333,9.573,21.333,21.333v32c0,5.896,4.771,10.667,10.667,10.667
				s10.667-4.771,10.667-10.667v-32C405.333,189.802,386.198,170.667,362.667,170.667z"/>
			<path d="M352,234.667h-21.333c-5.885,0-10.667-4.781-10.667-10.667c0-17.646-14.354-32-32-32
				c-5.885,0-10.667-4.781-10.667-10.667V160c0-5.896-4.771-10.667-10.667-10.667c-5.896,0-10.667,4.771-10.667,10.667v21.333
				c0,17.646,14.354,32,32,32c5.885,0,10.667,4.781,10.667,10.667c0,17.646,14.354,32,32,32H352c5.896,0,10.667-4.771,10.667-10.667
				C362.667,239.438,357.896,234.667,352,234.667z"/>
			<path d="M256,0C114.844,0,0,114.844,0,256s114.844,256,256,256s256-114.844,256-256S397.156,0,256,0z M256,490.667
				C126.604,490.667,21.333,385.396,21.333,256c0-60.866,23.488-116.212,61.628-157.956L262.25,277.333H117.333
				c-5.896,0-10.667,4.771-10.667,10.667v42.667c0,5.896,4.771,10.667,10.667,10.667H326.25l87.706,87.706
				C372.212,467.178,316.866,490.667,256,490.667z M283.583,298.667L304.917,320H128v-21.333H283.583z M313.75,298.667h27.583V320
				h-6.25L313.75,298.667z M429.039,413.956l-72.622-72.622h38.25c5.896,0,10.667-4.771,10.667-10.667V288
				c0-5.896-4.771-10.667-10.667-10.667h-102.25L98.044,82.961C139.788,44.822,195.134,21.333,256,21.333
				c129.396,0,234.667,105.271,234.667,234.667C490.667,316.866,467.178,372.212,429.039,413.956z M362.667,320v-21.333H384V320
				H362.667z"/>
		</g>
	</g>
</g>
<g>
</g>
<g>
</g>
<g>
</g>
<g>
</g>
<g>
</g>
<g>
</g>
<g>
</g>
<g>
</g>
<g>
</g>
<g>
</g>
<g>
</g>
<g>
</g>
<g>
</g>
<g>
</g>
<g>
</g>
</svg>
